{
  "$schema": "https://developer.microsoft.com/json-schemas/spfx-build/package-solution.schema.json",
  "solution": {
    "name": "helloworld-webpart-client-side-solution",
    "id": "9b318962-86d7-4830-91b1-7d422956ee2b",
    "version": "1.0.0.0",
    "includeClientSideAssets": true,
    "isDomainIsolated": false
  },
  "paths": {
    "zippedPackage": "solution/helloworld-webpart.sppkg"
  }
}
